{
  "configVersion": 2,
  "packages": [
    {
      "name": "async_redux",
      "rootUri": "file:///home/steve/snap/flutter/common/flutter/.pub-cache/hosted/pub.dartlang.org/async_redux-13.0.4",
      "packageUri": "lib/",
      "languageVersion": "2.12"
    },
    {
      "name": "characters",
      "rootUri": "file:///home/steve/snap/flutter/common/flutter/.pub-cache/hosted/pub.dartlang.org/characters-1.1.0",
      "packageUri": "lib/",
      "languageVersion": "2.12"
    },
    {
      "name": "clock",
      "rootUri": "file:///home/steve/snap/flutter/common/flutter/.pub-cache/hosted/pub.dartlang.org/clock-1.1.0",
      "packageUri": "lib/",
      "languageVersion": "2.12"
    },
    {
      "name": "collection",
      "rootUri": "file:///home/steve/snap/flutter/common/flutter/.pub-cache/hosted/pub.dartlang.org/collection-1.15.0",
      "packageUri": "lib/",
      "languageVersion": "2.12"
    },
    {
      "name": "crypto",
      "rootUri": "file:///home/steve/snap/flutter/common/flutter/.pub-cache/hosted/pub.dartlang.org/crypto-3.0.1",
      "packageUri": "lib/",
      "languageVersion": "2.12"
    },
    {
      "name": "fast_immutable_collections",
      "rootUri": "file:///home/steve/snap/flutter/common/flutter/.pub-cache/hosted/pub.dartlang.org/fast_immutable_collections-7.0.3",
      "packageUri": "lib/",
      "languageVersion": "2.12"
    },
    {
      "name": "ffi",
      "rootUri": "file:///home/steve/snap/flutter/common/flutter/.pub-cache/hosted/pub.dartlang.org/ffi-1.1.2",
      "packageUri": "lib/",
      "languageVersion": "2.12"
    },
    {
      "name": "file",
      "rootUri": "file:///home/steve/snap/flutter/common/flutter/.pub-cache/hosted/pub.dartlang.org/file-6.1.2",
      "packageUri": "lib/",
      "languageVersion": "2.12"
    },
    {
      "name": "flutter",
      "rootUri": "file:///home/steve/snap/flutter/common/flutter/packages/flutter",
      "packageUri": "lib/",
      "languageVersion": "2.12"
    },
    {
      "name": "intl",
      "rootUri": "file:///home/steve/snap/flutter/common/flutter/.pub-cache/hosted/pub.dartlang.org/intl-0.17.0",
      "packageUri": "lib/",
      "languageVersion": "2.12"
    },
    {
      "name": "logging",
      "rootUri": "file:///home/steve/snap/flutter/common/flutter/.pub-cache/hosted/pub.dartlang.org/logging-1.0.2",
      "packageUri": "lib/",
      "languageVersion": "2.12"
    },
    {
      "name": "meta",
      "rootUri": "file:///home/steve/snap/flutter/common/flutter/.pub-cache/hosted/pub.dartlang.org/meta-1.7.0",
      "packageUri": "lib/",
      "languageVersion": "2.12"
    },
    {
      "name": "path",
      "rootUri": "file:///home/steve/snap/flutter/common/flutter/.pub-cache/hosted/pub.dartlang.org/path-1.8.0",
      "packageUri": "lib/",
      "languageVersion": "2.12"
    },
    {
      "name": "path_provider",
      "rootUri": "file:///home/steve/snap/flutter/common/flutter/.pub-cache/hosted/pub.dartlang.org/path_provider-2.0.4",
      "packageUri": "lib/",
      "languageVersion": "2.12"
    },
    {
      "name": "path_provider_linux",
      "rootUri": "file:///home/steve/snap/flutter/common/flutter/.pub-cache/hosted/pub.dartlang.org/path_provider_linux-2.1.0",
      "packageUri": "lib/",
      "languageVersion": "2.12"
    },
    {
      "name": "path_provider_macos",
      "rootUri": "file:///home/steve/snap/flutter/common/flutter/.pub-cache/hosted/pub.dartlang.org/path_provider_macos-2.0.2",
      "packageUri": "lib/",
      "languageVersion": "2.12"
    },
    {
      "name": "path_provider_platform_interface",
      "rootUri": "file:///home/steve/snap/flutter/common/flutter/.pub-cache/hosted/pub.dartlang.org/path_provider_platform_interface-2.0.1",
      "packageUri": "lib/",
      "languageVersion": "2.12"
    },
    {
      "name": "path_provider_windows",
      "rootUri": "file:///home/steve/snap/flutter/common/flutter/.pub-cache/hosted/pub.dartlang.org/path_provider_windows-2.0.3",
      "packageUri": "lib/",
      "languageVersion": "2.12"
    },
    {
      "name": "platform",
      "rootUri": "file:///home/steve/snap/flutter/common/flutter/.pub-cache/hosted/pub.dartlang.org/platform-3.0.2",
      "packageUri": "lib/",
      "languageVersion": "2.12"
    },
    {
      "name": "plugin_platform_interface",
      "rootUri": "file:///home/steve/snap/flutter/common/flutter/.pub-cache/hosted/pub.dartlang.org/plugin_platform_interface-2.0.1",
      "packageUri": "lib/",
      "languageVersion": "2.12"
    },
    {
      "name": "process",
      "rootUri": "file:///home/steve/snap/flutter/common/flutter/.pub-cache/hosted/pub.dartlang.org/process-4.2.3",
      "packageUri": "lib/",
      "languageVersion": "2.12"
    },
    {
      "name": "qr_code_scanner",
      "rootUri": "file:///home/steve/snap/flutter/common/flutter/.pub-cache/hosted/pub.dartlang.org/qr_code_scanner-0.4.0",
      "packageUri": "lib/",
      "languageVersion": "2.12"
    },
    {
      "name": "sky_engine",
      "rootUri": "file:///home/steve/snap/flutter/common/flutter/bin/cache/pkg/sky_engine",
      "packageUri": "lib/",
      "languageVersion": "2.12"
    },
    {
      "name": "sqflite",
      "rootUri": "file:///home/steve/snap/flutter/common/flutter/.pub-cache/hosted/pub.dartlang.org/sqflite-2.0.0+4",
      "packageUri": "lib/",
      "languageVersion": "2.12"
    },
    {
      "name": "sqflite_common",
      "rootUri": "file:///home/steve/snap/flutter/common/flutter/.pub-cache/hosted/pub.dartlang.org/sqflite_common-2.0.1+1",
      "packageUri": "lib/",
      "languageVersion": "2.12"
    },
    {
      "name": "synchronized",
      "rootUri": "file:///home/steve/snap/flutter/common/flutter/.pub-cache/hosted/pub.dartlang.org/synchronized-3.0.0",
      "packageUri": "lib/",
      "languageVersion": "2.12"
    },
    {
      "name": "typed_data",
      "rootUri": "file:///home/steve/snap/flutter/common/flutter/.pub-cache/hosted/pub.dartlang.org/typed_data-1.3.0",
      "packageUri": "lib/",
      "languageVersion": "2.12"
    },
    {
      "name": "uuid",
      "rootUri": "file:///home/steve/snap/flutter/common/flutter/.pub-cache/hosted/pub.dartlang.org/uuid-3.0.4",
      "packageUri": "lib/",
      "languageVersion": "2.12"
    },
    {
      "name": "vector_math",
      "rootUri": "file:///home/steve/snap/flutter/common/flutter/.pub-cache/hosted/pub.dartlang.org/vector_math-2.1.0",
      "packageUri": "lib/",
      "languageVersion": "2.12"
    },
    {
      "name": "weak_map",
      "rootUri": "file:///home/steve/snap/flutter/common/flutter/.pub-cache/hosted/pub.dartlang.org/weak_map-2.0.3",
      "packageUri": "lib/",
      "languageVersion": "2.13"
    },
    {
      "name": "win32",
      "rootUri": "file:///home/steve/snap/flutter/common/flutter/.pub-cache/hosted/pub.dartlang.org/win32-2.2.9",
      "packageUri": "lib/",
      "languageVersion": "2.13"
    },
    {
      "name": "xdg_directories",
      "rootUri": "file:///home/steve/snap/flutter/common/flutter/.pub-cache/hosted/pub.dartlang.org/xdg_directories-0.2.0",
      "packageUri": "lib/",
      "languageVersion": "2.12"
    },
    {
      "name": "suedux",
      "rootUri": "../",
      "packageUri": "lib/",
      "languageVersion": "2.12"
    }
  ],
  "generated": "2021-10-10T23:43:15.643372Z",
  "generator": "pub",
  "generatorVersion": "2.14.2"
}
